…
```{r}
stock_tokens <- stock_articles %>%
  mutate(corpus = map(corpus, tidy)) %>%
  unnest(cols = (corpus)) %>%
  unnest_tokens(word, text) %>%
  select(company, datetimestamp, word, id, heading)

stock_tokens
#> # A tibble: 105,057 × 5
#>    company   datetimestamp       word        id                          heading
#>    <chr>     <dttm>              <chr>       <chr>                       <chr>  
#>  1 Microsoft 2017-01-17 12:07:24 microsoft   tag:finance.google.com,clu… Micros…
#>  2 Microsoft 2017-01-17 12:07:24 corporation tag:finance.google.com,clu… Micros…
#>  3 Microsoft 2017-01-17 12:07:24 data        tag:finance.google.com,clu… Micros…
#>  4 Microsoft 2017-01-17 12:07:24 privacy     tag:finance.google.com,clu… Micros…
#>  5 Microsoft 2017-01-17 12:07:24 could       tag:finance.google.com,clu… Micros…
#>  6 Microsoft 2017-01-17 12:07:24 send        tag:finance.google.com,clu… Micros…
#>  7 Microsoft 2017-01-17 12:07:24 msft        tag:finance.google.com,clu… Micros…
#>  8 Microsoft 2017-01-17 12:07:24 stock       tag:finance.google.com,clu… Micros…
#>  9 Microsoft 2017-01-17 12:07:24 soaring     tag:finance.google.com,clu… Micros…
#> 10 Microsoft 2017-01-17 12:07:24 by          tag:finance.google.com,clu… Micros…
#> # … with 105,047 more rows
```
…
